{
  "docs": {
    "Getting started": [
      "getting-started/introduction",
      "getting-started/installation",
      "getting-started/troubleshooting"
    ],
    "Guides": [
      "guides/architecture",
      "guides/frontend",
      "guides/backend",
      "guides/mobile",
      "guides/qa",
      "guides/deployment",
      "guides/documentation",
      "guides/git",
      "guides/share-to-minds",
      "guides/platforms",
      "guides/qa"
    ],
    "Contributing": ["contributing/contributing", "contributing/license"],
    "Walk-throughs": [
      "walk-throughs/backend-modules",
      "walk-throughs/backend-tests",
      "walk-throughs/block",
      "walk-throughs/event-streams",
      "walk-throughs/frontend-tests",
      "walk-throughs/emails",
      "walk-throughs/feature-flags",
      "walk-throughs/feed-algorithms",
      "walk-throughs/infinite-scroll",
      "walk-throughs/notifications",
      "walk-throughs/postman",
      "walk-throughs/mobile-locales",
      "walk-throughs/mobile-gitflow",
      "walk-throughs/mobile-styling",
      "walk-throughs/ab-testing",
      "walk-throughs/did",
      "walk-throughs/blockchain",
      "walk-throughs/stripe-testing"
    ],
    "Handbook": [
      "handbook/how-we-work",
      "handbook/bug-reporting",
      "handbook/code-reviews",
      "handbook/security-practices",
      "handbook/superhero"
    ],
    "Pro": ["pro/domains", "pro/developers"],
    "Infrastructure": ["infrastructure/kubernetes-autoscaling"]
  }
}
